7.748730870951952010e-01
3.474690427444646623e-01
7.851780713025169334e-01
5.071432716214246961e-01
2.494174007259589154e-01
8.369861533450804192e-01
1.772930948685622066e-01
5.514362734064426341e-01
6.134349281062906334e-01
6.142426431144076826e-01
9.019713709884712438e-01
7.961733277534525088e-01
8.554867616710140066e-01
7.205622010964947144e-01
5.111078110712490297e-01
8.097634527075158184e-01
7.815511867554828518e-01
6.221625175196701107e-01
7.230150022366486073e-01
9.474780701140120831e-01
9.395700201491271608e-01
1.918585181132069772e-01
1.558844853639034522e-01
2.189030685496641815e-01
6.626260697568298053e-01
1.486624805203519695e-01
2.529175216238751731e-02
1.611607400226619524e-01
8.668528123917849937e-03
3.437589380088822838e-02
4.070495491405858729e-02
1.799078068776620298e-02
1.052131470683520670e-01
1.353083401900296023e-01
1.037640517230347947e-01
6.171742170650067888e-03
1.439855643405258193e-04
1.420271100013157858e-02
2.648444369647843244e-01
6.797437771656000827e-02
2.337708319920719577e-02
9.597204928101222832e-01
5.977789294618119677e-03
4.457884381327318040e-05
8.606496005066878452e-02
9.288160516515396870e-01
2.013355224745441100e-03
1.143649898111651214e-01
2.322532000027069149e-04
8.317956415898134772e-04
9.917908315794993213e-01
4.879726384001996896e-03
1.826440332223678827e-03
8.893912039114977770e-05
5.227721268439796710e-03
1.193805617417367841e-04
6.460024039483220704e-04
1.713378175573234685e-01
8.444616707239320508e-02
1.416523941262900674e-04
